
{
    "sequence":[
        {
          "window":"hero1",
          "line1":"We are waiting on an internal",
          "line2":"team for updates.",
          "wait":5
        }
    
    ]
     
  }
  
